^C:\USERS\TAMJID\DOCUMENTS\VISUAL STUDIO 2010\PROJECTS\GRAPHICS_OFFLINE_1\GRAPHICS_OFFLINE_1\STDAFX.CPP
C:\USERS\TAMJID\DOCUMENTS\VISUAL STUDIO 2010\PROJECTS\GRAPHICS_OFFLINE_1\GRAPHICS_OFFLINE_1\DEBUG\GRAPHICS_OFFLINE_1.PCH
C:\USERS\TAMJID\DOCUMENTS\VISUAL STUDIO 2010\PROJECTS\GRAPHICS_OFFLINE_1\GRAPHICS_OFFLINE_1\DEBUG\STDAFX.OBJ
C:\USERS\TAMJID\DOCUMENTS\VISUAL STUDIO 2010\PROJECTS\GRAPHICS_OFFLINE_1\GRAPHICS_OFFLINE_1\DEBUG\VC100.PDB
^C:\USERS\TAMJID\DOCUMENTS\VISUAL STUDIO 2010\PROJECTS\GRAPHICS_OFFLINE_1\GRAPHICS_OFFLINE_1\GRAPHICS_OFFLINE_1.CPP
C:\USERS\TAMJID\DOCUMENTS\VISUAL STUDIO 2010\PROJECTS\GRAPHICS_OFFLINE_1\GRAPHICS_OFFLINE_1\DEBUG\GRAPHICS_OFFLINE_1.OBJ
C:\USERS\TAMJID\DOCUMENTS\VISUAL STUDIO 2010\PROJECTS\GRAPHICS_OFFLINE_1\GRAPHICS_OFFLINE_1\DEBUG\VC100.PDB
